…
    ## ── Column specification ────────────────────────────────────────────────────────
    ## Delimiter: ","
    ## chr (2): Group, Litter Number
    ## dbl (6): GD0 weight, GD18 weight, GD of Birth, Pups born alive, Pups dead @ ...

    ## 
    ## ℹ Use `spec()` to retrieve the full column specification for this data.
    ## ℹ Specify the column types or set `show_col_types = FALSE` to quiet this message.

``` r
litters_data
```

    ## # A tibble: 49 × 8
    ##    Group `Litter Number` `GD0 weight` `GD18 weight` `GD of Birth`
    ##    <chr> <chr>                  <dbl>         <dbl>         <dbl>
    ##  1 Con7  #85                     19.7          34.7            20
    ##  2 Con7  #1/2/95/2               27            42              19
    ##  3 Con7  #5/5/3/83/3-3           26            41.4            19
    ##  4 Con7  #5/4/2/95/2             28.5          44.1            19
    ##  5 Con7  #4/2/95/3-3             NA            NA              20
    ##  6 Con7  #2/2/95/3-2             NA            NA              20
    ##  7 Con7  #1/5/3/83/3-3/2         NA            NA              20
    ##  8 Con8  #3/83/3-3               NA            NA              20
    ##  9 Con8  #2/95/3                 NA            NA              20
    ## 10 Con8  #3/5/2/2/95             28.5          NA              20
    ## # … with 39 more rows, and 3 more variables: Pups born alive <dbl>,
    ## #   Pups dead @ birth <dbl>, Pups survive <dbl>
…
    ## ── Column specification ────────────────────────────────────────────────────────
    ## Delimiter: ","
    ## chr (4): X1, X2, X3, X4
    ## dbl (4): X5, X6, X7, X8

    ## 
    ## ℹ Use `spec()` to retrieve the full column specification for this data.
    ## ℹ Specify the column types or set `show_col_types = FALSE` to quiet this message.

``` r
litters_df
```

    ## # A tibble: 45 × 8
    ##    X1    X2              X3    X4       X5    X6    X7    X8
    ##    <chr> <chr>           <chr> <chr> <dbl> <dbl> <dbl> <dbl>
    ##  1 Con7  #4/2/95/3-3     NA    NA       20     6     0     6
    ##  2 Con7  #2/2/95/3-2     NA    NA       20     6     0     4
    ##  3 Con7  #1/5/3/83/3-3/2 NA    NA       20     9     0     9
    ##  4 Con8  #3/83/3-3       NA    NA       20     9     1     8
    ##  5 Con8  #2/95/3         NA    NA       20     8     0     8
    ##  6 Con8  #3/5/2/2/95     28.5  NA       20     8     0     8
    ##  7 Con8  #5/4/3/83/3     28    NA       19     9     0     8
    ##  8 Con8  #1/6/2/2/95-2   NA    NA       20     7     0     6
    ##  9 Con8  #3/5/3/83/3-3-2 NA    NA       20     8     0     8
    ## 10 Con8  #2/2/95/2       NA    NA       19     5     0     4
    ## # … with 35 more rows
…
