Simple document
================

## pivot longer

``` r
pulse_df = 
  haven::read_sas("data_import_examples/public_pulse_data.sas7bdat") %>%
  janitor::clean_names()

pulse_df
```

    ## # A tibble: 1,087 × 7
    ##       id   age sex    bdi_score_bl bdi_score_01m bdi_score_06m bdi_score_12m
    ##    <dbl> <dbl> <chr>         <dbl>         <dbl>         <dbl>         <dbl>
    ##  1 10003  48.0 male              7             1             2             0
    ##  2 10015  72.5 male              6            NA            NA            NA
    ##  3 10022  58.5 male             14             3             8            NA
    ##  4 10026  72.7 male             20             6            18            16
    ##  5 10035  60.4 male              4             0             1             2
    ##  6 10050  84.7 male              2            10            12             8
    ##  7 10078  31.3 male              4             0            NA            NA
    ##  8 10088  56.9 male              5            NA             0             2
    ##  9 10091  76.0 male              0             3             4             0
    ## 10 10092  74.2 female           10             2            11             6
    ## # … with 1,077 more rows
…
pulse_tidy
```

    ## # A tibble: 4,348 × 5
    ##    visit    id   age sex     bdi
    ##    <fct> <dbl> <dbl> <chr> <dbl>
    ##  1 00m   10003  48.0 male      7
    ##  2 01m   10003  48.0 male      1
    ##  3 06m   10003  48.0 male      2
    ##  4 12m   10003  48.0 male      0
    ##  5 00m   10015  72.5 male      6
    ##  6 01m   10015  72.5 male     NA
    ##  7 06m   10015  72.5 male     NA
    ##  8 12m   10015  72.5 male     NA
    ##  9 00m   10022  58.5 male     14
    ## 10 01m   10022  58.5 male      3
    ## # … with 4,338 more rows
…
